\beamer@endinputifotherversion {3.36pt}
\headcommand {\slideentry {0}{0}{1}{1/1}{}{0}}
\headcommand {\beamer@framepages {1}{1}}
\headcommand {\sectionentry {1}{Introduction}{2}{Introduction}{0}}
\headcommand {\beamer@sectionpages {1}{1}}
\headcommand {\beamer@subsectionpages {1}{1}}
\headcommand {\slideentry {1}{0}{1}{2/2}{}{0}}
\headcommand {\beamer@framepages {2}{2}}
\headcommand {\beamer@subsectionentry {0}{1}{1}{3}{What is microlensing?}}\headcommand {\beamer@subsectionpages {2}{2}}
\headcommand {\slideentry {1}{1}{1}{3/3}{What is microlensing?}{0}}
\headcommand {\beamer@framepages {3}{3}}
\headcommand {\slideentry {1}{1}{2}{4/4}{What is microlensing?}{0}}
\headcommand {\beamer@framepages {4}{4}}
\headcommand {\slideentry {1}{1}{3}{5/5}{What is microlensing?}{0}}
\headcommand {\beamer@framepages {5}{5}}
\headcommand {\slideentry {1}{1}{4}{6/6}{What is microlensing?}{0}}
\headcommand {\beamer@framepages {6}{6}}
\headcommand {\slideentry {1}{1}{5}{7/7}{What is microlensing?}{0}}
\headcommand {\beamer@framepages {7}{7}}
\headcommand {\sectionentry {2}{Parameter Extraction}{8}{Parameter Extraction}{0}}
\headcommand {\beamer@sectionpages {2}{7}}
\headcommand {\beamer@subsectionpages {3}{7}}
\headcommand {\slideentry {2}{0}{1}{8/8}{}{0}}
\headcommand {\beamer@framepages {8}{8}}
\headcommand {\beamer@subsectionentry {0}{2}{1}{9}{How do we navigate our parameter space?}}\headcommand {\beamer@subsectionpages {8}{8}}
\headcommand {\slideentry {2}{1}{1}{9/9}{How do we navigate our parameter space?}{0}}
\headcommand {\beamer@framepages {9}{9}}
\headcommand {\slideentry {2}{1}{2}{10/10}{How do we navigate our parameter space?}{0}}
\headcommand {\beamer@framepages {10}{10}}
\headcommand {\beamer@subsectionentry {0}{2}{2}{11}{What problems did we face?}}\headcommand {\beamer@subsectionpages {9}{10}}
\headcommand {\slideentry {2}{2}{1}{11/11}{What problems did we face?}{0}}
\headcommand {\beamer@framepages {11}{11}}
\headcommand {\beamer@subsectionentry {0}{2}{3}{12}{How did we solve these problems?}}\headcommand {\beamer@subsectionpages {11}{11}}
\headcommand {\slideentry {2}{3}{1}{12/12}{How did we solve these problems?}{0}}
\headcommand {\beamer@framepages {12}{12}}
\headcommand {\beamer@subsectionentry {0}{2}{4}{13}{Okay, so how well did we do?}}\headcommand {\beamer@subsectionpages {12}{12}}
\headcommand {\slideentry {2}{4}{1}{13/13}{Okay, so how well did we do?}{0}}
\headcommand {\beamer@framepages {13}{13}}
\headcommand {\sectionentry {3}{Future Work}{14}{Future Work}{0}}
\headcommand {\beamer@sectionpages {8}{13}}
\headcommand {\beamer@subsectionpages {13}{13}}
\headcommand {\slideentry {3}{0}{1}{14/14}{}{0}}
\headcommand {\beamer@framepages {14}{14}}
\headcommand {\beamer@subsectionentry {0}{3}{1}{15}{What about future astrophysics?}}\headcommand {\beamer@subsectionpages {14}{14}}
\headcommand {\slideentry {3}{1}{1}{15/15}{What about future astrophysics?}{0}}
\headcommand {\beamer@framepages {15}{15}}
\headcommand {\slideentry {3}{1}{2}{16/16}{What about future astrophysics?}{0}}
\headcommand {\beamer@framepages {16}{16}}
\headcommand {\partentry {\translate {Appendix}}{1}}
\headcommand {\beamer@partpages {1}{16}}
\headcommand {\beamer@sectionpages {14}{16}}
\headcommand {\beamer@subsectionpages {15}{16}}
\headcommand {\beamer@appendixpages {17}}
\headcommand {\sectionentry {4}{Backup Slides}{17}{Backup Slides}{1}}
\headcommand {\beamer@sectionpages {17}{16}}
\headcommand {\beamer@subsectionpages {17}{16}}
\headcommand {\slideentry {4}{0}{1}{17/17}{}{1}}
\headcommand {\beamer@framepages {17}{17}}
\headcommand {\slideentry {4}{0}{2}{18/18}{}{1}}
\headcommand {\beamer@framepages {18}{18}}
\headcommand {\beamer@partpages {17}{18}}
\headcommand {\beamer@subsectionpages {17}{18}}
\headcommand {\beamer@sectionpages {17}{18}}
\headcommand {\beamer@documentpages {18}}
\headcommand {\def \inserttotalframenumber {16}}
