Final chi-squared: 1111.04974844
Final reduced chi-squared 2.15737815231

-----PARAMETERS-----
eta: 0.168376224839
f_0: 95.6743703896
t_0: 56.254244446
t_E: 20.1214037608
u_min 0.156807528866
params list: [0.16837622483945722, 95.674370389645674, 56.254244445995106, 20.121403760846661, 0.15680752886558402]
-----PARAMETERS-----

baseline: 59.9224327826
width: 24.9163
Final chi-squared: 1961.52141179
Final reduced chi-squared 3.7291281593

-----PARAMETERS-----
eta: 0.199139828829
f_0: 60.0205433328
t_0: 58.9990596659
t_E: 24.9894566203
u_min 0.162629713449
params list: [0.19913982882858483, 60.020543332807598, 58.999059665904745, 24.989456620317196, 0.1626297134492529]
-----PARAMETERS-----
